{
  "count": 224,
  "next": "https://www.livecoding.tv/api/codingcategories/?limit=100&offset=100",
  "previous": null,
  "results": [
    {
      "url": "https://www.livecoding.tv/api/codingcategories/Graphics-Design/",
      "name": "Graphics-Design",
      "sort": 782
    },
    {
      "url": "https://www.livecoding.tv/api/codingcategories/Phonegap/",
      "name": "Phonegap",
      "sort": 783
    },
    {
      "url": "https://www.livecoding.tv/api/codingcategories/Phoenix/",
      "name": "Phoenix",
      "sort": 784
    },
    {
      "url": "https://www.livecoding.tv/api/codingcategories/Dynamics-CRM/",
      "name": "Dynamics-CRM",
      "sort": 785
    },
    {
      "url": "https://www.livecoding.tv/api/codingcategories/Cucumber/",
      "name": "Cucumber",
      "sort": 786
    },
    {
      "url": "https://www.livecoding.tv/api/codingcategories/Lisp/",
      "name": "Lisp",
      "sort": 787
    },
    {
      "url": "https://www.livecoding.tv/api/codingcategories/Gulp/",
      "name": "Gulp",
      "sort": 788
    },
    {
      "url": "https://www.livecoding.tv/api/codingcategories/Vagrant/",
      "name": "Vagrant",
      "sort": 789
    },
    {
      "url": "https://www.livecoding.tv/api/codingcategories/IRC/",
      "name": "IRC",
      "sort": 790
    },
    {
      "url": "https://www.livecoding.tv/api/codingcategories/XMPP/",
      "name": "XMPP",
      "sort": 791
    },
    {
      "url": "https://www.livecoding.tv/api/codingcategories/WPF/",
      "name": "WPF",
      "sort": 792
    },
    {
      "url": "https://www.livecoding.tv/api/codingcategories/Fancybox/",
      "name": "Fancybox",
      "sort": 793
    },
    {
      "url": "https://www.livecoding.tv/api/codingcategories/Jetty/",
      "name": "Jetty",
      "sort": 794
    },
    {
      "url": "https://www.livecoding.tv/api/codingcategories/Putty/",
      "name": "Putty",
      "sort": 795
    },
    {
      "url": "https://www.livecoding.tv/api/codingcategories/Scrapy/",
      "name": "Scrapy",
      "sort": 796
    },
    {
      "url": "https://www.livecoding.tv/api/codingcategories/ODBC/",
      "name": "ODBC",
      "sort": 797
    },
    {
      "url": "https://www.livecoding.tv/api/codingcategories/JDBC/",
      "name": "JDBC",
      "sort": 798
    },
    {
      "url": "https://www.livecoding.tv/api/codingcategories/wxPython/",
      "name": "wxPython",
      "sort": 799
    },
    {
      "url": "https://www.livecoding.tv/api/codingcategories/Cygwin/",
      "name": "Cygwin",
      "sort": 800
    },
    {
      "url": "https://www.livecoding.tv/api/codingcategories/Tinymce/",
      "name": "Tinymce",
      "sort": 801
    },
    {
      "url": "https://www.livecoding.tv/api/codingcategories/BeautifulSoup/",
      "name": "BeautifulSoup",
      "sort": 802
    },
    {
      "url": "https://www.livecoding.tv/api/codingcategories/Ckeditor/",
      "name": "Ckeditor",
      "sort": 803
    },
    {
      "url": "https://www.livecoding.tv/api/codingcategories/Fortran/",
      "name": "Fortran",
      "sort": 804
    },
    {
      "url": "https://www.livecoding.tv/api/codingcategories/SAP/",
      "name": "SAP",
      "sort": 805
    },
    {
      "url": "https://www.livecoding.tv/api/codingcategories/Oracle/",
      "name": "Oracle",
      "sort": 806
    },
    {
      "url": "https://www.livecoding.tv/api/codingcategories/Xampp/",
      "name": "Xampp",
      "sort": 807
    },
    {
      "url": "https://www.livecoding.tv/api/codingcategories/Erlang/",
      "name": "Erlang",
      "sort": 808
    },
    {
      "url": "https://www.livecoding.tv/api/codingcategories/Jersey/",
      "name": "Jersey",
      "sort": 809
    },
    {
      "url": "https://www.livecoding.tv/api/codingcategories/Git/",
      "name": "Git",
      "sort": 810
    },
    {
      "url": "https://www.livecoding.tv/api/codingcategories/Gitbash/",
      "name": "Gitbash",
      "sort": 811
    },
    {
      "url": "https://www.livecoding.tv/api/codingcategories/Mercurial/",
      "name": "Mercurial",
      "sort": 812
    },
    {
      "url": "https://www.livecoding.tv/api/codingcategories/Gruntjs/",
      "name": "Gruntjs",
      "sort": 813
    },
    {
      "url": "https://www.livecoding.tv/api/codingcategories/OAuth2/",
      "name": "OAuth2",
      "sort": 814
    },
    {
      "url": "https://www.livecoding.tv/api/codingcategories/Libgdx/",
      "name": "Libgdx",
      "sort": 815
    },
    {
      "url": "https://www.livecoding.tv/api/codingcategories/Cron/",
      "name": "Cron",
      "sort": 816
    },
    {
      "url": "https://www.livecoding.tv/api/codingcategories/Docker/",
      "name": "Docker",
      "sort": 817
    },
    {
      "url": "https://www.livecoding.tv/api/codingcategories/Mapreduce/",
      "name": "Mapreduce",
      "sort": 819
    },
    {
      "url": "https://www.livecoding.tv/api/codingcategories/ffmpeg/",
      "name": "ffmpeg",
      "sort": 820
    },
    {
      "url": "https://www.livecoding.tv/api/codingcategories/Makefile/",
      "name": "Makefile",
      "sort": 821
    },
    {
      "url": "https://www.livecoding.tv/api/codingcategories/Mongoose/",
      "name": "Mongoose",
      "sort": 822
    },
    {
      "url": "https://www.livecoding.tv/api/codingcategories/Coldfusion/",
      "name": "Coldfusion",
      "sort": 823
    },
    {
      "url": "https://www.livecoding.tv/api/codingcategories/Clojure/",
      "name": "Clojure",
      "sort": 824
    },
    {
      "url": "https://www.livecoding.tv/api/codingcategories/Solr/",
      "name": "Solr",
      "sort": 825
    },
    {
      "url": "https://www.livecoding.tv/api/codingcategories/Ant/",
      "name": "Ant",
      "sort": 826
    },
    {
      "url": "https://www.livecoding.tv/api/codingcategories/Golang/",
      "name": "Golang",
      "sort": 827
    },
    {
      "url": "https://www.livecoding.tv/api/codingcategories/Go/",
      "name": "Go",
      "sort": 828
    },
    {
      "url": "https://www.livecoding.tv/api/codingcategories/Gradle/",
      "name": "Gradle",
      "sort": 829
    },
    {
      "url": "https://www.livecoding.tv/api/codingcategories/SSH/",
      "name": "SSH",
      "sort": 830
    },
    {
      "url": "https://www.livecoding.tv/api/codingcategories/Jenkins/",
      "name": "Jenkins",
      "sort": 831
    },
    {
      "url": "https://www.livecoding.tv/api/codingcategories/Awk/",
      "name": "Awk",
      "sort": 832
    },
    {
      "url": "https://www.livecoding.tv/api/codingcategories/Emacs/",
      "name": "Emacs",
      "sort": 833
    },
    {
      "url": "https://www.livecoding.tv/api/codingcategories/Elastic%20Search/",
      "name": "Elastic Search",
      "sort": 834
    },
    {
      "url": "https://www.livecoding.tv/api/codingcategories/Parse.com/",
      "name": "Parse.com",
      "sort": 835
    },
    {
      "url": "https://www.livecoding.tv/api/codingcategories/Nginx/",
      "name": "Nginx",
      "sort": 836
    },
    {
      "url": "https://www.livecoding.tv/api/codingcategories/Google-API/",
      "name": "Google-API",
      "sort": 837
    },
    {
      "url": "https://www.livecoding.tv/api/codingcategories/Twitter-API/",
      "name": "Twitter-API",
      "sort": 838
    },
    {
      "url": "https://www.livecoding.tv/api/codingcategories/Soap/",
      "name": "Soap",
      "sort": 839
    },
    {
      "url": "https://www.livecoding.tv/api/codingcategories/Vim/",
      "name": "Vim",
      "sort": 840
    },
    {
      "url": "https://www.livecoding.tv/api/codingcategories/GWT/",
      "name": "GWT",
      "sort": 841
    },
    {
      "url": "https://www.livecoding.tv/api/codingcategories/Assembly/",
      "name": "Assembly",
      "sort": 842
    },
    {
      "url": "https://www.livecoding.tv/api/codingcategories/Canvas/",
      "name": "Canvas",
      "sort": 843
    },
    {
      "url": "https://www.livecoding.tv/api/codingcategories/Razor/",
      "name": "Razor",
      "sort": 844
    },
    {
      "url": "https://www.livecoding.tv/api/codingcategories/Sharepoint/",
      "name": "Sharepoint",
      "sort": 845
    },
    {
      "url": "https://www.livecoding.tv/api/codingcategories/Numpy/",
      "name": "Numpy",
      "sort": 846
    },
    {
      "url": "https://www.livecoding.tv/api/codingcategories/SSL/",
      "name": "SSL",
      "sort": 847
    },
    {
      "url": "https://www.livecoding.tv/api/codingcategories/Hadoop/",
      "name": "Hadoop",
      "sort": 848
    },
    {
      "url": "https://www.livecoding.tv/api/codingcategories/Selenium/",
      "name": "Selenium",
      "sort": 849
    },
    {
      "url": "https://www.livecoding.tv/api/codingcategories/Opengl/",
      "name": "Opengl",
      "sort": 850
    },
    {
      "url": "https://www.livecoding.tv/api/codingcategories/Flex/",
      "name": "Flex",
      "sort": 851
    },
    {
      "url": "https://www.livecoding.tv/api/codingcategories/Haskell/",
      "name": "Haskell",
      "sort": 853
    },
    {
      "url": "https://www.livecoding.tv/api/codingcategories/Ubuntu/",
      "name": "Ubuntu",
      "sort": 854
    },
    {
      "url": "https://www.livecoding.tv/api/codingcategories/WinAPI/",
      "name": "WinAPI",
      "sort": 855
    },
    {
      "url": "https://www.livecoding.tv/api/codingcategories/Tomcat/",
      "name": "Tomcat",
      "sort": 856
    },
    {
      "url": "https://www.livecoding.tv/api/codingcategories/Batch-file/",
      "name": "Batch-file",
      "sort": 858
    },
    {
      "url": "https://www.livecoding.tv/api/codingcategories/Silverlight/",
      "name": "Silverlight",
      "sort": 859
    },
    {
      "url": "https://www.livecoding.tv/api/codingcategories/Opencv/",
      "name": "Opencv",
      "sort": 860
    },
    {
      "url": "https://www.livecoding.tv/api/codingcategories/Powershell/",
      "name": "Powershell",
      "sort": 861
    },
    {
      "url": "https://www.livecoding.tv/api/codingcategories/Cocoa-touch/",
      "name": "Cocoa-touch",
      "sort": 862
    },
    {
      "url": "https://www.livecoding.tv/api/codingcategories/Flash/",
      "name": "Flash",
      "sort": 863
    },
    {
      "url": "https://www.livecoding.tv/api/codingcategories/Google-App-Engine/",
      "name": "Google-App-Engine",
      "sort": 864
    },
    {
      "url": "https://www.livecoding.tv/api/codingcategories/Delphi/",
      "name": "Delphi",
      "sort": 865
    },
    {
      "url": "https://www.livecoding.tv/api/codingcategories/Cocoa/",
      "name": "Cocoa",
      "sort": 866
    },
    {
      "url": "https://www.livecoding.tv/api/codingcategories/Websocket/",
      "name": "Websocket",
      "sort": 867
    },
    {
      "url": "https://www.livecoding.tv/api/codingcategories/Maven/",
      "name": "Maven",
      "sort": 868
    },
    {
      "url": "https://www.livecoding.tv/api/codingcategories/Google-Maps/",
      "name": "Google-Maps",
      "sort": 869
    },
    {
      "url": "https://www.livecoding.tv/api/codingcategories/ActionScript/",
      "name": "ActionScript",
      "sort": 870
    },
    {
      "url": "https://www.livecoding.tv/api/codingcategories/Cordova/",
      "name": "Cordova",
      "sort": 871
    },
    {
      "url": "https://www.livecoding.tv/api/codingcategories/Vue.js/",
      "name": "Vue.js",
      "sort": 872
    },
    {
      "url": "https://www.livecoding.tv/api/codingcategories/Shell/",
      "name": "Shell",
      "sort": 873
    },
    {
      "url": "https://www.livecoding.tv/api/codingcategories/TypeScript/",
      "name": "TypeScript",
      "sort": 874
    },
    {
      "url": "https://www.livecoding.tv/api/codingcategories/WCF/",
      "name": "WCF",
      "sort": 875
    },
    {
      "url": "https://www.livecoding.tv/api/codingcategories/Ionic/",
      "name": "Ionic",
      "sort": 876
    },
    {
      "url": "https://www.livecoding.tv/api/codingcategories/Qt/",
      "name": "Qt",
      "sort": 877
    },
    {
      "url": "https://www.livecoding.tv/api/codingcategories/CoffeeScript/",
      "name": "CoffeeScript",
      "sort": 878
    },
    {
      "url": "https://www.livecoding.tv/api/codingcategories/Wolfram/",
      "name": "Wolfram",
      "sort": 881
    },
    {
      "url": "https://www.livecoding.tv/api/codingcategories/jQuery-mobile/",
      "name": "jQuery-mobile",
      "sort": 882
    },
    {
      "url": "https://www.livecoding.tv/api/codingcategories/Elixir/",
      "name": "Elixir",
      "sort": 883
    },
    {
      "url": "https://www.livecoding.tv/api/codingcategories/Wordpress/",
      "name": "Wordpress",
      "sort": 884
    },
    {
      "url": "https://www.livecoding.tv/api/codingcategories/Three.js/",
      "name": "Three.js",
      "sort": 885
    },
    {
      "url": "https://www.livecoding.tv/api/codingcategories/Swing/",
      "name": "Swing",
      "sort": 886
    }
  ]
}
